%YAML 1.1
%TAG !u! tag:unity3d.com,2011:
--- !u!78 &1
TagManager:
  serializedVersion: 2
  tags:
  - EnemyA
  - EnemyB
  - EnemyC
  layers:
  - Default
  - TransparentFX
  - Ignore Raycast
  - 
  - Water
  - UI
  - 
  - 
  - Mask
  - Player
  - 
  - 
  - 
  - 
  - 
  - 
  - 
  - 
  - 
  - 
  - 
  - 
  - 
  - 
  - 
  - 
  - 
  - 
  - 
  - 
  - 
  - 
  m_SortingLayers:
  - name: Default
    uniqueID: 0
    locked: 0
  - name: background
    uniqueID: 2845880497
    locked: 0
  - name: interact
    uniqueID: 3664428065
    locked: 0
  - name: enemy
    uniqueID: 3150801463
    locked: 0
  - name: player
    uniqueID: 111968463
    locked: 0
